Product IDIs MedicalName;is Medical;Name *;Categories (x,y,z...);Price;Reference #;Quantity;Short description;Description;Image URLs (x,y,z...);Your store prduct link (for not cannabis);Country;State;City;Attributes group;Attributes value
;1;iPod Nano;Hybrid;100;RP-demo_1;160;<p>New design.</p>;<p>New design.</p>;https://marijuanastocks.com/wp-content/uploads/2018/04/Hemp-legalization--324x160.jpg;;USA;Nebraska;Abie;weight;1oz:100,1/2oz:50,1/4oz:25,1/8oz:12.5
;0;iPod shuffle;Travel;60;RP-demo_2;120;<p>New design.</p>;<p>New design.</p>;https://multimedia.bbycastatic.ca/multimedia/products/500x500/114/11464/11464749.jpg,https://multimedia.bbycastatic.ca/multimedia/products/500x500/114/11464/11464749_1.jpg;https://www.bestbuy.ca/en-ca/product/apple-macbook-air-13-3-intel-core-i5-1-8-ghz-128gb-ssd-8gb-ram-2017-model-english-open-box/11464749.aspx;USA;Nebraska;Abie;weight;2g:100,1.5g:50,1g:25,0.5g:12.5
149;0;MacBook Air;Travel;1500;RP-demo_3;400;<p>New design.</p>;<p>New design.</p>;https://marijuanastocks.com/wp-content/uploads/2018/11/Marijuana-risk-696x452.jpg;;USA;Nebraska;Abie;weight;1oz:500,1/2oz:250,1/4oz:125,1/8oz:62.5
