<svg width="7" height="9" viewBox="0 0 7 9" fill="none" xmlns="http://www.w3.org/2000/svg">
<path d="M0.500244 8C0.500244 8.55 0.950244 9 1.50024 9H5.50024C6.05024 9 6.50024 8.55 6.50024 8V2H0.500244V8ZM7.00024 0.5H5.25024L4.75024 0H2.25024L1.75024 0.5H0.000244141V1.5H7.00024V0.5Z" fill="white"/>
</svg>
